rlabuonora.com
…
Now we need to create a data frame of speeches. Each line is a speech in the play, with the character that speaks it and the number of lines it lasts.

# Build a df with speech, start line, length char
speeches_df <- hamlet %>% 
  group_by(speech_idx) %>% 
  summarise(char_name = first(char_name), 
            line = first(line),
          speech_length = as.integer(n()-2)) %>% 
  dplyr::filter(char_name != "director")

The longest speech is by Hamlet (duh!), and starts at line 2677.

speeches_df %>% 
  arrange(-speech_length)
## # A tibble: 1,077 x 4
##    speech_idx char_name  line speech_length
##         <int> <chr>     <int>         <int>
##  1        498 Ham        2677            60
##  2        234 Ghost      1296            50
##  3         69 King        383            39
##  4        761 Ham        4039            36
##  5        154 Laer        846            35
##  6        522 Ham        2857            35
##  7        480 Pol        2553            34
##  8        479 Ham        2518            33
##  9        568 Ham        3139            32
## 10         84 King        502            31
## # … with 1,067 more rows
…
