rlabuonora.com
…
Parsear fechas (en español).

En Uruguay hay 11 feriados. Para convertirlas en fechas, usamos expand_grid para combinar las fechas con todos los años entre 2015 y 2030, y para parsear el texto de la fecha usamos readr::parse_date. La función wday nos da el día de la semana en que cae determinada fecha.

library(lubridate)

expand_grid(t=2015:2030, fecha=feriados$fecha) %>% 
  left_join(feriados, by="fecha") %>% 
  mutate(fecha = paste(fecha, t)) %>% 
  mutate(fecha=parse_date(fecha, "%d %B %Y", locale=locale("es"))) %>% 
  mutate(wdia=wday(fecha, label=TRUE, abbr=FALSE)) %>% 
  mutate(wdia = stringr::str_to_title(wdia))

## # A tibble: 176 x 4
##        t fecha      nombre                                      wdia    
##    <int> <date>     <chr>                                       <chr>   
##  1  2015 2015-01-01 Año Nuevo                                   Thursday
##  2  2015 2015-01-06 Día de los Niños                            Tuesday 
##  3  2015 2015-04-19 Desembarco de los Treinta y Tres Orientales Sunday  
##  4  2015 2015-05-01 Día de los Trabajadores                     Friday  
##  5  2015 2015-05-18 Batalla de Las Piedras                      Monday  
##  6  2015 2015-06-19 Natalicio de Artigas                        Friday  
##  7  2015 2015-07-18 Jura de la Constitución                     Saturday
##  8  2015 2015-08-25 Declaratoria de la Independencia            Tuesday 
##  9  2015 2015-10-12 Día de la Raza                              Monday  
## 10  2015 2015-11-02 Día de los Difuntos                         Monday  
## # ... with 166 more rows
…
