…
Pero ahora me encuentro con otro problema. Como dice Hadley, los NA son infecciosos. Eso implica que sales$TERRITORY == NA es siempre NA, por lo si elegimo NA en el dropdown vamos a subsetear por un vector de NA:

subset(sales, TERRITORY == NA)

## # A tibble: 0 x 6
## # … with 6 variables: TERRITORY <chr>, ORDERDATE <chr>, ORDERNUMBER <dbl>,
## #   PRODUCTCODE <chr>, QUANTITYORDERED <dbl>, PRICEEACH <dbl>

Para solucionar eso, podemos usar %in%:

subset(sales, TERRITORY %in% c("EMEA"))

## # A tibble: 1,407 x 6
##    TERRITORY ORDERDATE       ORDERNUMBER PRODUCTCODE QUANTITYORDERED PRICEEACH
##    <chr>     <chr>                 <dbl> <chr>                 <dbl>     <dbl>
##  1 EMEA      5/7/2003 0:00         10121 S10_1678                 34      81.4
##  2 EMEA      7/1/2003 0:00         10134 S10_1678                 41      94.7
##  3 EMEA      11/11/2003 0:00       10180 S10_1678                 29      86.1
##  4 EMEA      11/18/2003 0:00       10188 S10_1678                 48     100  
##  5 EMEA      1/15/2004 0:00        10211 S10_1678                 41     100  
##  6 EMEA      7/23/2004 0:00        10275 S10_1678                 45      92.8
##  7 EMEA      9/30/2004 0:00        10299 S10_1678                 23     100  
##  8 EMEA      10/15/2004 0:00       10309 S10_1678                 41     100  
##  9 EMEA      11/24/2004 0:00       10341 S10_1678                 41     100  
## 10 EMEA      2/3/2005 0:00         10375 S10_1678                 21      34.9
## # … with 1,397 more rows
…
