…
library(Horsekicks)

Nunca usé la distribución Poisson. En este posteo me saco esa duda con unos datos de muertes por patada de caballo que estan en el paquete R Horsekicks::hkdeaths:

tibble::as_tibble(Horsekicks::hkdeaths)

## # A tibble: 462 × 8
##     year corps regiments  NCOs  kick drown  fall vonB_kick
##    <int> <fct>     <int> <int> <int> <int> <int>     <int>
##  1  1875 G             8     0     0     3     0         0
##  2  1875 I             6     0     0     5     0         0
##  3  1875 II            4     0     0     6     0         0
##  4  1875 III           4     0     0     7     1         0
##  5  1875 IV            4     0     0     7     0         0
##  6  1875 V             4     0     0    11     0         0
##  7  1875 VI            5     0     0     5     2         0
##  8  1875 VII           4     0     1     7     0         1
##  9  1875 VIII          4     0     1     5     1         1
## 10  1875 IX            4     0     0    12     1         0
## # ℹ 452 more rows
…
